// Jest Snapshot v1, https://goo.gl/fbAQLP

exports[`Home should fetch products on form submit and return results with pagination 1`] = `
<div>
  <section
    class="sc-AxjAm jIjvPC"
  >
    <article
      class="sc-AxirZ lhOOCO"
    >
      <h1
        class="sc-AxiKw dTtmUR"
      >
        This is a page for 
        <br />
         beauty product search
      </h1>
    </article>
    <aside
      class="sc-AxhCb jwTpAq page-image"
    />
  </section>
  <section
    class="sc-AxhUy gzpksf"
  >
    <aside
      class="sc-AxgMl kNHrqx"
    >
      <form
        class="sc-AxheI hMrnKl"
        data-testid="form"
      >
        <input
          aria-label="search"
          class="sc-Axmtr jdXxrm"
          placeholder="Enter a product name or an ingredient..."
          type="search"
        />
        <input
          class="sc-AxmLO euRWSy"
          type="submit"
          value="Search"
        />
      </form>
      <ul
        class="sc-fzozJi iIZTRg"
      >
        <li
          class="sc-fzoLsD iqpWRh"
        >
          <p>
            <strong>
              Brand1
            </strong>
             - 
            <span>
              Name1
            </span>
          </p>
        </li>
        <li
          class="sc-fzoLsD iqpWRh"
        >
          <p>
            <strong>
              Brand2
            </strong>
             - 
            <span>
              Name2
            </span>
          </p>
        </li>
      </ul>
      <p
        class="sc-fzpans lbFJAI"
      >
        <strong>
          Total results :
        </strong>
         
        2
      </p>
      <ul
        class="pagination"
      >
        <li
          class="previous disabled"
        >
          <a
            aria-disabled="true"
            class="icon icon-circle-left"
            role="button"
            tabindex="0"
          />
        </li>
        <li
          class="active"
        >
          <a
            aria-current="page"
            aria-label="Page 1 is your current page"
            role="button"
            tabindex="0"
          >
            1
          </a>
        </li>
        <li
          class="next disabled"
        >
          <a
            aria-disabled="true"
            class="icon icon-circle-right"
            role="button"
            tabindex="0"
          />
        </li>
      </ul>
    </aside>
  </section>
</div>
`;

exports[`Home should render properly 1`] = `
<div>
  <section
    class="sc-AxjAm jIjvPC"
  >
    <article
      class="sc-AxirZ lhOOCO"
    >
      <h1
        class="sc-AxiKw dTtmUR"
      >
        This is a page for 
        <br />
         beauty product search
      </h1>
    </article>
    <aside
      class="sc-AxhCb jwTpAq page-image"
    />
  </section>
  <section
    class="sc-AxhUy gzpksf"
  >
    <aside
      class="sc-AxgMl kNHrqx"
    >
      <form
        class="sc-AxheI hMrnKl"
        data-testid="form"
      >
        <input
          aria-label="search"
          class="sc-Axmtr jdXxrm"
          placeholder="Enter a product name or an ingredient..."
          type="search"
        />
        <input
          class="sc-AxmLO euRWSy"
          type="submit"
          value="Search"
        />
      </form>
    </aside>
  </section>
</div>
`;

exports[`Home should show no results when fetch products fails 1`] = `
<div>
  <section
    class="sc-AxjAm jIjvPC"
  >
    <article
      class="sc-AxirZ lhOOCO"
    >
      <h1
        class="sc-AxiKw dTtmUR"
      >
        This is a page for 
        <br />
         beauty product search
      </h1>
    </article>
    <aside
      class="sc-AxhCb jwTpAq page-image"
    />
  </section>
  <section
    class="sc-AxhUy gzpksf"
  >
    <aside
      class="sc-AxgMl kNHrqx"
    >
      <form
        class="sc-AxheI hMrnKl"
        data-testid="form"
      >
        <input
          aria-label="search"
          class="sc-Axmtr jdXxrm"
          placeholder="Enter a product name or an ingredient..."
          type="search"
        />
        <input
          class="sc-AxmLO euRWSy"
          type="submit"
          value="Search"
        />
      </form>
      <p
        class="sc-fzpans lbFJAI"
      >
        <strong>
          Total results :
        </strong>
         
        2
      </p>
    </aside>
  </section>
</div>
`;

exports[`Home should show spinner when fetch products pending 1`] = `
<div>
  <section
    class="sc-AxjAm jIjvPC"
  >
    <article
      class="sc-AxirZ lhOOCO"
    >
      <h1
        class="sc-AxiKw dTtmUR"
      >
        This is a page for 
        <br />
         beauty product search
      </h1>
    </article>
    <aside
      class="sc-AxhCb jwTpAq page-image"
    />
  </section>
  <section
    class="sc-AxhUy gzpksf"
  >
    <aside
      class="sc-AxgMl kNHrqx"
    >
      <form
        class="sc-AxheI hMrnKl"
        data-testid="form"
      >
        <input
          aria-label="search"
          class="sc-Axmtr jdXxrm"
          placeholder="Enter a product name or an ingredient..."
          type="search"
        />
        <input
          class="sc-AxmLO euRWSy"
          type="submit"
          value="Search"
        />
      </form>
      <div
        class="rai-activity-indicator undefined"
        style="display: inline-block; font-size: 16px; line-height: 0;"
      >
        <div
          class="rai-spinner"
          style="animation-duration: 0.6s;"
        >
          <div
            class="rai-spinner-outer"
            style="border-color: #55d7ff;"
          />
          <div
            class="rai-spinner-inner"
            style="border-color: #55d7ff;"
          />
        </div>
      </div>
    </aside>
  </section>
</div>
`;
